{
    "resourceType" : "Observation",
    "id" : "ID520409956--PATIENTID-",
    "code" :
    {
        "coding" :
                [
                    {
                        "system" : "http://loinc.org",
                        "code" : "58941-6",
                        "display" : "Transcutaneous Bilirubin"
                    }
                ]
    },
    "valueQuantity" :
    {
        "value" : 14,
        "unit" : "mg/dL",
        "code" : "mg/dL"
    },
    "effectiveDateTime" : "START-1600-END",
    "status" : "final",
    "subject" :
    {
        "reference" : "Patient/ID-PATIENTID-"
    }
}