{
   "resourceType" : "Patient",
    "id":"ID-PATIENTID-",
    "identifier" :
      [
         {
            "use" : "usual",
            "type" :
               {
                  "coding" :
                     [
                        {
                           "system" : "http://hl7.org/fhir/v2/0203",
                           "code" : "MR",
                           "display" : "Medical record number"
                        }
                     ]
               },
            "system" : "http://hospital.smarthealthit.org",
            "value" : "ID-PATIENTID-"
         }
      ],
   "name" :
      [
         {
            "use" : "official",
            "family" :
               [
                  "LastName"
               ],
            "given" :
               [
                  "Baby"
               ]
         }
      ],
   "gender" : "female",
   "birthDate" : "-DATE-",
   "extension" :
      [
         {
            "url" : "http://hl7.org/fhir/StructureDefinition/patient-birthTime",
            "valueDateTime" : "-DATE-"
         }
      ],
   "active" : true
}