{
    "resourceType": "Subscription",
    "id": "example-demo-careplan",
    "criteria": "CarePlan",
    "reason": "All CarePlan resources",
    "status": "requested",
    "channel": {
        "type": "rest-hook",
        "endpoint": "https://sandbox.hspconsortium.org/hspc-bilirubin-monitor/bilirubin/onEvent",
        "payload": "application/json",
        "header": "Authorization: Bearer secret-token-abc-123"
    }
}